1 10 20
100 200 125
201 210 89
900 1000 174
1 1000 179
1000 2000 182
2000 3000 217
3000 4000 238
4000 5000 215
5000 6000 236
6000 7000 262
7000 8000 252
8000 9000 247
9000 10000 260
10000 11000 268
11000 12000 250
12000 13000 263
13000 14000 276
14000 15000 271
15000 16000 271
16000 17000 266
17000 18000 279
18000 19000 261
19000 20000 274
20000 21000 256
21000 22000 269
22000 23000 269
23000 24000 282
24000 25000 264
25000 26000 264
26000 27000 308
27000 28000 259
28000 29000 259
29000 30000 272
30000 31000 272
31000 32000 285
32000 33000 267
33000 34000 267
34000 35000 311
35000 36000 324
36000 37000 249
37000 38000 306
38000 39000 244
39000 40000 306
40000 41000 288
41000 42000 257
42000 43000 288
43000 44000 270
44000 45000 270
45000 46000 314
46000 47000 283
47000 48000 314
48000 49000 296
49000 50000 296
50000 51000 278
51000 52000 309
52000 53000 340
53000 54000 322
54000 55000 260
55000 56000 260
56000 57000 322
57000 58000 304
58000 59000 273
59000 60000 304
60000 61000 335
61000 62000 317
62000 63000 286
63000 64000 330
64000 65000 299
65000 66000 268
66000 67000 268
67000 68000 312
68000 69000 312
69000 70000 299
70000 71000 312
71000 72000 325
72000 73000 263
73000 74000 294
74000 75000 325
75000 76000 307
76000 77000 307
77000 78000 351
78000 79000 338
79000 80000 307
80000 81000 320
81000 82000 320
82000 83000 320
83000 84000 289
84000 85000 320
85000 86000 302
86000 87000 302
87000 88000 333
88000 89000 333
89000 90000 315
90000 91000 315
91000 92000 333
92000 93000 315
93000 94000 284
94000 95000 315
95000 96000 328
96000 97000 297
97000 98000 297
98000 99000 284
99000 100000 328
100000 101000 341
1958 2304 183
2000 1000 182
100000 100000 129
