.................
----------------------------------------------------------------------
Ran 17 tests in 14.267s

OK
Name             Stmts   Miss Branch BrPart  Cover   Missing
------------------------------------------------------------
Collatz.py          30      0     10      0   100%
TestCollatz.py      72      0      0      0   100%
------------------------------------------------------------
TOTAL              102      0     10      0   100%
